%YAML 1.1
%TAG !u! tag:unity3d.com,2011:
--- !u!1001 &598875124041028051
PrefabInstance:
  m_ObjectHideFlags: 0
  serializedVersion: 2
  m_Modification:
    m_TransformParent: {fileID: 0}
    m_Modifications:
    - target: {fileID: 905014618916850540, guid: ba69af8fc7282204d9777c9ba2865c3e,
        type: 3}
      propertyPath: m_Name
      value: SpikeRack (1)
      objectReference: {fileID: 0}
    - target: {fileID: 905014618916850541, guid: ba69af8fc7282204d9777c9ba2865c3e,
        type: 3}
      propertyPath: m_LocalPosition.x
      value: 131.88
      objectReference: {fileID: 0}
    - target: {fileID: 905014618916850541, guid: ba69af8fc7282204d9777c9ba2865c3e,
        type: 3}
      propertyPath: m_LocalPosition.y
      value: -3.154348
      objectReference: {fileID: 0}
    - target: {fileID: 905014618916850541, guid: ba69af8fc7282204d9777c9ba2865c3e,
        type: 3}
      propertyPath: m_LocalPosition.z
      value: -28.27
      objectReference: {fileID: 0}
    - target: {fileID: 905014618916850541, guid: ba69af8fc7282204d9777c9ba2865c3e,
        type: 3}
      propertyPath: m_LocalRotation.x
      value: -0.50002486
      objectReference: {fileID: 0}
    - target: {fileID: 905014618916850541, guid: ba69af8fc7282204d9777c9ba2865c3e,
        type: 3}
      propertyPath: m_LocalRotation.y
      value: 0.4999752
      objectReference: {fileID: 0}
    - target: {fileID: 905014618916850541, guid: ba69af8fc7282204d9777c9ba2865c3e,
        type: 3}
      propertyPath: m_LocalRotation.z
      value: 0.4999752
      objectReference: {fileID: 0}
    - target: {fileID: 905014618916850541, guid: ba69af8fc7282204d9777c9ba2865c3e,
        type: 3}
      propertyPath: m_LocalRotation.w
      value: 0.50002486
      objectReference: {fileID: 0}
    - target: {fileID: 905014618916850541, guid: ba69af8fc7282204d9777c9ba2865c3e,
        type: 3}
      propertyPath: m_RootOrder
      value: 0
      objectReference: {fileID: 0}
    - target: {fileID: 905014618916850541, guid: ba69af8fc7282204d9777c9ba2865c3e,
        type: 3}
      propertyPath: m_LocalEulerAnglesHint.x
      value: -90.00001
      objectReference: {fileID: 0}
    - target: {fileID: 905014618916850541, guid: ba69af8fc7282204d9777c9ba2865c3e,
        type: 3}
      propertyPath: m_LocalEulerAnglesHint.y
      value: 0
      objectReference: {fileID: 0}
    - target: {fileID: 905014618916850541, guid: ba69af8fc7282204d9777c9ba2865c3e,
        type: 3}
      propertyPath: m_LocalEulerAnglesHint.z
      value: 89.994
      objectReference: {fileID: 0}
    m_RemovedComponents: []
  m_SourcePrefab: {fileID: 100100000, guid: ba69af8fc7282204d9777c9ba2865c3e, type: 3}
